EGPE_APP:Inverness Approach:122.600:PEA:S:EGPE:APP:-:-:3702:3734:N057.32.24.220:W004.03.00.180::
EGPE_R_APP:Inverness Radar:122.600:PER:S:EGPE_R:APP:-:-:3702:3734:N057.32.24.220:W004.03.00.180::
EGPE_TWR:Inverness Tower:118.400:PET:S:EGPE:TWR:-:-:3702:3734:N057.32.24.220:W004.03.00.180::
EGPE_ATIS:Inverness ATIS:109.200:PEI:S:EGPE:ATIS:-:-:::::