;EGD138
EGD138     N051.37.14.002 E000.55.36.001 N051.37.14.002 E001.12.02.999
EGD138     N051.37.14.002 E001.12.02.999 N051.30.00.000 E000.52.59.999
EGD138     N051.30.00.000 E000.52.59.999 N051.30.09.000 E000.51.15.001
EGD138     N051.30.09.000 E000.51.15.001 N051.32.17.002 E000.48.04.000
EGD138     N051.32.17.002 E000.48.04.000 N051.34.00.001 E000.49.59.999
EGD138     N051.34.00.001 E000.49.59.999 N051.34.59.999 E000.50.17.999
EGD138     N051.34.59.999 E000.50.17.999 N051.35.40.999 E000.50.16.001
EGD138     N051.35.40.999 E000.50.16.001 N051.37.19.999 E000.52.40.001
EGD138     N051.37.19.999 E000.52.40.001 N051.37.00.001 E000.54.55.001
EGD138     N051.37.00.001 E000.54.55.001 N051.37.14.002 E000.55.36.001
;EGD138A
EGD138A    N051.40.00.001 E001.04.00.001 N051.40.00.001 E001.16.13.001
EGD138A    N051.40.00.001 E001.16.13.001 N051.37.14.002 E001.12.02.999
EGD138A    N051.37.14.002 E001.12.02.999 N051.37.14.002 E000.55.36.001
EGD138A    N051.37.14.002 E000.55.36.001 N051.40.00.001 E001.04.00.001
;EGD138B
EGD138B    N051.42.00.000 E001.11.24.000 N051.42.00.000 E001.19.12.000
EGD138B    N051.42.00.000 E001.19.12.000 N051.40.00.001 E001.16.13.001
EGD138B    N051.40.00.001 E001.16.13.001 N051.40.00.001 E001.04.00.001
EGD138B    N051.40.00.001 E001.04.00.001 N051.42.00.000 E001.11.24.000